{
  "iisSettings": {
    "windowsAuthentication": false,
    "anonymousAuthentication": true,
    "iisExpress": {
      "applicationUrl": "http://localhost:8888/",
      "sslPort": 0
    }
  },
  "profiles": {
    "IIS Express": {
      "commandName": "IISExpress",
      "launchBrowser": true,
      "environmentVariables": {
        "Hosting:Environment": "Development"
      }
    },
    "web": {
      "commandName": "web",
      "environmentVariables": {
        "Hosting:Environment": "Development"
      }
    }
  }
}